{
  "verbose": true,
  "ext": "js",
  "ignore": ["src/**, *.*"],
  "exec": "node dist/server/index.js --service-name presentations",
  "restartable": "rs",
  "env": {
    "NODE_ENV": "production"
  },
  "signal": "SIGTERM"
}
